<svg width="63" height="63" viewBox="0 0 63 63" fill="none" xmlns="http://www.w3.org/2000/svg">
<path d="M47.4444 33.7778V45.1667C47.4444 46.4194 46.4194 47.4444 45.1667 47.4444H17.8333C16.5806 47.4444 15.5556 46.4194 15.5556 45.1667V33.7778C15.5556 32.525 14.5306 31.5 13.2778 31.5C12.025 31.5 11 32.525 11 33.7778V47.4444C11 49.95 13.05 52 15.5556 52H47.4444C49.95 52 52 49.95 52 47.4444V33.7778C52 32.525 50.975 31.5 49.7222 31.5C48.4694 31.5 47.4444 32.525 47.4444 33.7778ZM33.7778 33.0261L38.06 28.7439C38.9483 27.8556 40.3833 27.8556 41.2717 28.7439C42.16 29.6322 42.16 31.0672 41.2717 31.9556L33.0944 40.1328C32.2061 41.0211 30.7711 41.0211 29.8828 40.1328L21.7056 31.9556C20.8172 31.0672 20.8172 29.6322 21.7056 28.7439C22.5939 27.8556 24.0289 27.8556 24.9172 28.7439L29.2222 33.0261V13.2778C29.2222 12.025 30.2472 11 31.5 11C32.7528 11 33.7778 12.025 33.7778 13.2778V33.0261Z" fill="#39207C"/>
</svg>
