<svg width="49" height="45" viewBox="0 0 49 45" fill="none" xmlns="http://www.w3.org/2000/svg">
<path fill-rule="evenodd" clip-rule="evenodd" d="M44.1 0H4.9C2.205 0 0 2.205 0 4.9V39.2C0 41.895 2.205 44.1 4.9 44.1H44.1C46.795 44.1 49 41.895 49 39.2V4.9C49 2.205 46.795 0 44.1 0ZM17.15 34.3H9.8C8.4525 34.3 7.35 33.1975 7.35 31.85C7.35 30.5025 8.4525 29.4 9.8 29.4H17.15C18.4975 29.4 19.6 30.5025 19.6 31.85C19.6 33.1975 18.4975 34.3 17.15 34.3ZM17.15 24.5H9.8C8.4525 24.5 7.35 23.3975 7.35 22.05C7.35 20.7025 8.4525 19.6 9.8 19.6H17.15C18.4975 19.6 19.6 20.7025 19.6 22.05C19.6 23.3975 18.4975 24.5 17.15 24.5ZM17.15 14.7H9.8C8.4525 14.7 7.35 13.5975 7.35 12.25C7.35 10.9025 8.4525 9.8 9.8 9.8H17.15C18.4975 9.8 19.6 10.9025 19.6 12.25C19.6 13.5975 18.4975 14.7 17.15 14.7ZM40.915 19.894L33.1485 27.6605C32.193 28.616 30.625 28.616 29.6695 27.6605L26.215 24.1815C25.2595 23.226 25.2595 21.6825 26.215 20.727C27.1705 19.7715 28.714 19.7715 29.6695 20.727L31.409 22.4665L37.4605 16.415C38.416 15.4595 39.9595 15.4595 40.915 16.415L40.9395 16.4395C41.8705 17.395 41.8705 18.963 40.915 19.894Z" fill="#39207C"/>
</svg>
