<svg width="63" height="63" viewBox="0 0 63 63" fill="none" xmlns="http://www.w3.org/2000/svg">
<path d="M49.5619 20.1869L37.7887 8.41375C36.8869 7.51187 35.6438 7 34.3519 7H16.875C14.1937 7 12.0244 9.19375 12.0244 11.875L12 50.875C12 53.5563 14.1694 55.75 16.8506 55.75H46.125C48.8063 55.75 51 53.5563 51 50.875V23.6481C51 22.3562 50.4881 21.1131 49.5619 20.1869ZM27.1856 44.2694L22.0181 39.1019C21.0675 38.1513 21.0675 36.6156 22.0181 35.665C22.9687 34.7144 24.5044 34.7144 25.455 35.665L28.8919 39.1019L37.5206 30.4731C38.4713 29.5225 40.0069 29.5225 40.9575 30.4731C41.9081 31.4238 41.9081 32.9594 40.9575 33.91L30.6225 44.245C29.6963 45.22 28.1362 45.22 27.1856 44.2694ZM36.375 24.0625C35.0344 24.0625 33.9375 22.9656 33.9375 21.625V10.6562L47.3438 24.0625H36.375Z" fill="#39207C"/>
</svg>
